artificial 10 0.7 100 10 AMBER
natural 500 0.1 30 5 DIAMOND

natural 100 0.3 10 100 EMERALD
natural 250 0.9 25 87 PEARL
artificial 50 0.5 30 300 RUBY
artificial 40 0.4 20 200 SAPPHIRE
natural 600 0.1 57 9 DIAMOND
natural 450 0.25 17 6 DIAMOND
natural 300 0.3 10 4 DIAMOND
natural 280 0.31 7 2 DIAMOND
artificial 95 0.37 40 380 RUBY
artificial 130 0.2 20 150 RUBY

natural 300 0.95 10 15 PEARL
natural 300 0.95 10 15 PEARL
artificial 100 0.1 100 700 SAPPHIRE
artificial a
natural 80 0.65 57 93 AMBER
artificial 32 0.57 25 140 EMERALD
natural 1000 0.05 7 1 RUBY
natural 110 0.35 18 367 AMBER
natural 99 0.40 14 11 AMBER