10
0 10 12 48 17 18 -7 33 58 -1
11 0 33 14 41 52 29 74 10 11
60 37 0 -9 77 79 78 91 31 32
45 44 49 0 59 -9 3 7 71 72
2 4 5 6 0 7 8 9 -8 -9
81 82 83 -2 87 0 -3 -4 2 3
99 99 99 99 99 99 0 99 4 5
-2 -1 -3 -4 -5 -6 -7 0 6 7
1 2 3 4 5 6 7 8 0 10
35 -3 89 45 37 89 90 50 70 0
1200
1201
1202
1203